module bitbucket.org/jwierzbo/helm-tools

require (
	github.com/gogo/protobuf v1.1.1 // indirect
	github.com/golang/protobuf v1.2.0
	github.com/google/btree v0.0.0-20180813153112-4030bb1f1f0c // indirect
	github.com/google/gofuzz v0.0.0-20170612174753-24818f796faf // indirect
	github.com/googleapis/gnostic v0.2.0 // indirect
	github.com/gregjones/httpcache v0.0.0-20181110185634-c63ab54fda8f // indirect
	github.com/imdario/mergo v0.3.6 // indirect
	github.com/json-iterator/go v1.1.5 // indirect
	github.com/modern-go/concurrent v0.0.0-20180306012644-bacd9c7ef1dd // indirect
	github.com/modern-go/reflect2 v1.0.1 // indirect
	github.com/peterbourgon/diskv v2.0.1+incompatible // indirect
	github.com/spf13/pflag v1.0.3 // indirect
	golang.org/x/crypto v0.0.0-20181203042331-505ab145d0a9 // indirect
	golang.org/x/net v0.0.0-20181207154023-610586996380 // indirect
	golang.org/x/oauth2 v0.0.0-20181203162652-d668ce993890 // indirect
	golang.org/x/sys v0.0.0-20181208175041-ad97f365e150 // indirect
	golang.org/x/time v0.0.0-20181108054448-85acf8d2951c // indirect
	google.golang.org/appengine v1.3.0 // indirect
	gopkg.in/inf.v0 v0.9.1 // indirect
	gopkg.in/yaml.v2 v2.2.2 // indirect
	k8s.io/api v0.0.0-20181130031204-d04500c8c3dd // indirect
	k8s.io/apimachinery v0.0.0-20181207080347-f1a02064268b
	k8s.io/client-go v10.0.0+incompatible
	k8s.io/helm v2.12.0+incompatible
	k8s.io/klog v0.1.0 // indirect
	rsc.io/quote v1.5.2 // indirect
	sigs.k8s.io/yaml v1.1.0 // indirect
)
